{
  "provisioners": [
    {
      "type": "shell",
      "execute_command": "echo 'vagrant'|sudo -S sh '{{.Path}}'",
      "override": {
        "virtualbox-iso": {
          "scripts": [
            "scripts/base.sh",
            "scripts/vagrant.sh",
            "scripts/virtualbox.sh",
            "scripts/cleanup.sh",
            "scripts/zerodisk.sh"
          ]
        },
        "vmware-iso": {
          "scripts": [
            "scripts/base.sh",
            "scripts/vagrant.sh",
            "scripts/vmware.sh",
            "scripts/cleanup.sh",
            "scripts/zerodisk.sh"
          ]
        }
      }
    }
  ],
  "post-processors": [
    {
      "type": "vagrant",
      "override": {
        "virtualbox": {
          "output": "ubuntu-14-04-x64-virtualbox.box"
        },
        "vmware": {
          "output": "ubuntu-14-04-x64-vmware.box"
        }
      }
    }
  ],
  "builders": [
    {
      "type": "virtualbox-iso",
      "boot_command": [
        "<esc><wait>",
        "<esc><wait>",
        "<enter><wait>",
        "/install/vmlinuz<wait>",
        " auto<wait>",
        " console-setup/ask_detect=false<wait>",
        " console-setup/layoutcode=us<wait>",
        " console-setup/modelcode=pc105<wait>",
        " debian-installer=en_US<wait>",
        " fb=false<wait>",
        " initrd=/install/initrd.gz<wait>",
        " kbd-chooser/method=us<wait>",
        " keyboard-configuration/layout=USA<wait>",
        " keyboard-configuration/variant=USA<wait>",
        " locale=en_US<wait>",
        " netcfg/get_hostname=ubuntu-1404<wait>",
        " netcfg/get_domain=vagrantup.com<wait>",
        " noapic<wait>",
        " preseed/url=http://{{ .HTTPIP }}:{{ .HTTPPort }}/preseed.cfg<wait>",
        " -- <wait>",
        "<enter><wait>"
      ],
      "boot_wait": "10s",
      "disk_size": 40960,
      "guest_os_type": "Ubuntu_64",
      "http_directory": "http",
      "iso_checksum": "2ac1f3e0de626e54d05065d6f549fa3a",
      "iso_checksum_type": "md5",
      "iso_url": "http://releases.ubuntu.com/14.04/ubuntu-14.04.4-server-amd64.iso",
      "ssh_username": "vagrant",
      "ssh_password": "vagrant",
      "ssh_port": 22,
      "ssh_wait_timeout": "10000s",
      "shutdown_command": "echo 'shutdown -P now' > /tmp/shutdown.sh; echo 'vagrant'|sudo -S sh '/tmp/shutdown.sh'",
      "vboxmanage": [
        [ "modifyvm", "{{.Name}}", "--memory", "512" ],
        [ "modifyvm", "{{.Name}}", "--cpus", "1" ]
      ]
    },
    {
      "type": "vmware-iso",
      "boot_command": [
        "<esc><wait>",
        "<esc><wait>",
        "<enter><wait>",
        "/install/vmlinuz<wait>",
        " auto<wait>",
        " console-setup/ask_detect=false<wait>",
        " console-setup/layoutcode=us<wait>",
        " console-setup/modelcode=pc105<wait>",
        " debian-installer=en_US<wait>",
        " fb=false<wait>",
        " initrd=/install/initrd.gz<wait>",
        " kbd-chooser/method=us<wait>",
        " keyboard-configuration/layout=USA<wait>",
        " keyboard-configuration/variant=USA<wait>",
        " locale=en_US<wait>",
        " netcfg/get_hostname=ubuntu-1404<wait>",
        " netcfg/get_domain=vagrantup.com<wait>",
        " noapic<wait>",
        " preseed/url=http://{{ .HTTPIP }}:{{ .HTTPPort }}/preseed.cfg<wait>",
        " -- <wait>",
        "<enter><wait>"
      ],
      "boot_wait": "10s",
      "disk_size": 40960,
      "guest_os_type": "linux",
      "http_directory": "http",
      "iso_checksum": "9e5fecc94b3925bededed0fdca1bd417",
      "iso_checksum_type": "md5",
      "iso_url": "http://releases.ubuntu.com/14.04/ubuntu-14.04.3-server-amd64.iso",
      "ssh_username": "vagrant",
      "ssh_password": "vagrant",
      "ssh_port": 22,
      "ssh_wait_timeout": "10000s",
      "shutdown_command": "echo 'shutdown -P now' > /tmp/shutdown.sh; echo 'vagrant'|sudo -S sh '/tmp/shutdown.sh'",
      "vmx_data": {
        "memsize": "512",
        "numvcpus": "1",
        "cpuid.coresPerSocket": "1"
      }
    }
  ]
}
